{
  "datatype": {
    "name": "noarkObject",
    "version": "5.5.0"
  },
  "value": {
    "systemId": "a8a24e40-12e3-4f43-b05b-73ba1b7bd261",
    "createdDate": "2023-12-08T01:00:36-08:00",
    "createdBy": "Joe the builder",
    "eventType": "CREATE",
    "objectType": "File"
  }
}
